{
	"accessType": {
		"582125": 4,
		"17100": 4,
		"300122": 4,
		"2821140": 4,
		"2821141": 4,
		"2821142": 4,
		"2821143": 4,
		"909467": 4,
		"17324": 4,
		"2560712": 4
	},
	"pagination": {
		"take": 10,
		"skip": 0,
		"currentPage": 1,
		"pages": 264,
		"total": 2637
	},
	"stats": { "elapsedMilliseconds": 11 },
	"metaData": {
		"maxScore": 0.0,
		"itemScores": [
			{ "id": "582125-0", "score": 2.2 },
			{ "id": "17100-0", "score": 2.2 },
			{ "id": "300122-0", "score": 2.2 },
			{ "id": "2821140-0", "score": 2.2 },
			{ "id": "2821141-0", "score": 2.2 },
			{ "id": "2821142-0", "score": 2.2 },
			{ "id": "2821143-0", "score": 2.2 },
			{ "id": "909467-0", "score": 2.2 },
			{ "id": "17324-0", "score": 2.2 },
			{ "id": "2560712-0", "score": 2.2 }
		]
	},
	"data": [
		{
			"collectionUserId": 0,
			"isReleased": false,
			"url": "https://www.dndbeyond.com/monsters/582125-the-demogorgon",
			"conditionImmunitiesHtml": "",
			"sensesHtml": "",
			"skillsHtml": "",
			"stats": [],
			"senses": [],
			"savingThrows": [],
			"skills": [],
			"languages": [],
			"hitPointDice": {
				"diceCount": 0,
				"diceValue": 0,
				"diceMultiplier": 0,
				"fixedValue": 0,
				"diceString": "d0"
			},
			"swarm": { "name": "", "sizeId": 0, "typeId": 0 },
			"movements": [],
			"homebrewStatus": 0,
			"id": 582125,
			"entityTypeId": 0,
			"name": "\"The Demogorgon\"",
			"alignmentId": 0,
			"sizeId": 5,
			"typeId": 10,
			"armorClass": 0,
			"armorClassDescription": "",
			"averageHitPoints": 0,
			"passivePerception": 0,
			"isHomebrew": false,
			"challengeRatingId": 12,
			"sourceId": 56,
			"sourcePageNumber": 53,
			"isLegendary": false,
			"isMythic": false,
			"hasLair": false,
			"avatarUrl": "https://www.dndbeyond.com/avatars/7996/752/637115020138426612.jpeg",
			"largeAvatarUrl": "",
			"basicAvatarUrl": "",
			"version": "",
			"subTypes": [],
			"environments": [],
			"tags": [],
			"sources": [{ "sourceId": 56, "pageNumber": 53, "sourceType": 1 }],
			"damageAdjustments": [],
			"conditionImmunities": [],
			"specialTraitsDescription": "",
			"actionsDescription": "",
			"reactionsDescription": "",
			"legendaryActionsDescription": "",
			"mythicActionsDescription": null,
			"bonusActionsDescription": null,
			"characteristicsDescription": "",
			"lairDescription": "",
			"languageDescription": "",
			"languageNote": "",
			"hideCr": false,
			"isLegacy": false
		},
		{
			"collectionUserId": 0,
			"isReleased": false,
			"url": "https://www.dndbeyond.com/monsters/17100-aarakocra",
			"conditionImmunitiesHtml": "",
			"sensesHtml": "",
			"skillsHtml": "",
			"stats": [],
			"senses": [],
			"savingThrows": [],
			"skills": [],
			"languages": [],
			"hitPointDice": {
				"diceCount": 0,
				"diceValue": 0,
				"diceMultiplier": 0,
				"fixedValue": 0,
				"diceString": "d0"
			},
			"swarm": { "name": "", "sizeId": 0, "typeId": 0 },
			"movements": [],
			"homebrewStatus": 0,
			"id": 17100,
			"entityTypeId": 0,
			"name": "Aarakocra",
			"alignmentId": 0,
			"sizeId": 4,
			"typeId": 11,
			"armorClass": 0,
			"armorClassDescription": "",
			"averageHitPoints": 0,
			"passivePerception": 0,
			"isHomebrew": false,
			"challengeRatingId": 3,
			"sourceId": 5,
			"sourcePageNumber": 12,
			"isLegendary": false,
			"isMythic": false,
			"hasLair": false,
			"avatarUrl": "https://www.dndbeyond.com/avatars/8/441/636306375308314493.jpeg",
			"largeAvatarUrl": "",
			"basicAvatarUrl": "",
			"version": "",
			"subTypes": [],
			"environments": [],
			"tags": [],
			"sources": [
				{ "sourceId": 5, "pageNumber": 12, "sourceType": 1 },
				{ "sourceId": 83, "pageNumber": null, "sourceType": 2 },
				{ "sourceId": 66, "pageNumber": null, "sourceType": 2 },
				{ "sourceId": 90, "pageNumber": null, "sourceType": 2 },
				{ "sourceId": 12, "pageNumber": null, "sourceType": 2 }
			],
			"damageAdjustments": [],
			"conditionImmunities": [],
			"specialTraitsDescription": "",
			"actionsDescription": "",
			"reactionsDescription": "",
			"legendaryActionsDescription": "",
			"mythicActionsDescription": null,
			"bonusActionsDescription": null,
			"characteristicsDescription": "",
			"lairDescription": "",
			"languageDescription": "",
			"languageNote": "",
			"hideCr": false,
			"isLegacy": false
		},
		{
			"collectionUserId": 0,
			"isReleased": false,
			"url": "https://www.dndbeyond.com/monsters/300122-aarakocra-simulacrum",
			"conditionImmunitiesHtml": "",
			"sensesHtml": "",
			"skillsHtml": "",
			"stats": [],
			"senses": [],
			"savingThrows": [],
			"skills": [],
			"languages": [],
			"hitPointDice": {
				"diceCount": 0,
				"diceValue": 0,
				"diceMultiplier": 0,
				"fixedValue": 0,
				"diceString": "d0"
			},
			"swarm": { "name": "", "sizeId": 0, "typeId": 0 },
			"movements": [],
			"homebrewStatus": 0,
			"id": 300122,
			"entityTypeId": 0,
			"name": "Aarakocra Simulacrum",
			"alignmentId": 0,
			"sizeId": 4,
			"typeId": 11,
			"armorClass": 0,
			"armorClassDescription": "",
			"averageHitPoints": 0,
			"passivePerception": 0,
			"isHomebrew": false,
			"challengeRatingId": 2,
			"sourceId": 12,
			"sourcePageNumber": 188,
			"isLegendary": false,
			"isMythic": false,
			"hasLair": false,
			"avatarUrl": "https://www.dndbeyond.com/avatars/4675/675/636747837794884984.jpeg",
			"largeAvatarUrl": "",
			"basicAvatarUrl": "",
			"version": "",
			"subTypes": [],
			"environments": [],
			"tags": [],
			"sources": [{ "sourceId": 12, "pageNumber": 188, "sourceType": 1 }],
			"damageAdjustments": [],
			"conditionImmunities": [],
			"specialTraitsDescription": "",
			"actionsDescription": "",
			"reactionsDescription": "",
			"legendaryActionsDescription": "",
			"mythicActionsDescription": null,
			"bonusActionsDescription": null,
			"characteristicsDescription": "",
			"lairDescription": "",
			"languageDescription": "",
			"languageNote": "",
			"hideCr": false,
			"isLegacy": false
		},
		{
			"collectionUserId": 0,
			"isReleased": false,
			"url": "https://www.dndbeyond.com/monsters/2821140-aarakocra-spelljammer",
			"conditionImmunitiesHtml": "",
			"sensesHtml": "",
			"skillsHtml": "",
			"stats": [],
			"senses": [],
			"savingThrows": [],
			"skills": [],
			"languages": [],
			"hitPointDice": {
				"diceCount": 0,
				"diceValue": 0,
				"diceMultiplier": 0,
				"fixedValue": 0,
				"diceString": "d0"
			},
			"swarm": { "name": "", "sizeId": 0, "typeId": 0 },
			"movements": [],
			"homebrewStatus": 0,
			"id": 2821140,
			"entityTypeId": 0,
			"name": "Aarakocra Spelljammer",
			"alignmentId": 0,
			"sizeId": 4,
			"typeId": 11,
			"armorClass": 0,
			"armorClassDescription": "",
			"averageHitPoints": 0,
			"passivePerception": 0,
			"isHomebrew": false,
			"challengeRatingId": 10,
			"sourceId": 90,
			"sourcePageNumber": 43,
			"isLegendary": false,
			"isMythic": false,
			"hasLair": false,
			"avatarUrl": "https://www.dndbeyond.com/avatars/4675/675/636747837794884984.jpeg",
			"largeAvatarUrl": "",
			"basicAvatarUrl": "",
			"version": "",
			"subTypes": [],
			"environments": [],
			"tags": [],
			"sources": [{ "sourceId": 90, "pageNumber": 43, "sourceType": 1 }],
			"damageAdjustments": [],
			"conditionImmunities": [],
			"specialTraitsDescription": "",
			"actionsDescription": "",
			"reactionsDescription": "",
			"legendaryActionsDescription": "",
			"mythicActionsDescription": null,
			"bonusActionsDescription": null,
			"characteristicsDescription": "",
			"lairDescription": "",
			"languageDescription": "",
			"languageNote": "",
			"hideCr": false,
			"isLegacy": false
		},
		{
			"collectionUserId": 0,
			"isReleased": false,
			"url": "https://www.dndbeyond.com/monsters/2821141-aartuk-elder",
			"conditionImmunitiesHtml": "",
			"sensesHtml": "",
			"skillsHtml": "",
			"stats": [],
			"senses": [],
			"savingThrows": [],
			"skills": [],
			"languages": [],
			"hitPointDice": {
				"diceCount": 0,
				"diceValue": 0,
				"diceMultiplier": 0,
				"fixedValue": 0,
				"diceString": "d0"
			},
			"swarm": { "name": "", "sizeId": 0, "typeId": 0 },
			"movements": [],
			"homebrewStatus": 0,
			"id": 2821141,
			"entityTypeId": 0,
			"name": "Aartuk Elder",
			"alignmentId": 0,
			"sizeId": 5,
			"typeId": 15,
			"armorClass": 0,
			"armorClassDescription": "",
			"averageHitPoints": 0,
			"passivePerception": 0,
			"isHomebrew": false,
			"challengeRatingId": 7,
			"sourceId": 90,
			"sourcePageNumber": 8,
			"isLegendary": false,
			"isMythic": false,
			"hasLair": false,
			"avatarUrl": "https://www.dndbeyond.com/avatars/28079/769/637961800636978861.jpeg",
			"largeAvatarUrl": "",
			"basicAvatarUrl": "",
			"version": "",
			"subTypes": [],
			"environments": [],
			"tags": [],
			"sources": [{ "sourceId": 90, "pageNumber": 8, "sourceType": 1 }],
			"damageAdjustments": [],
			"conditionImmunities": [],
			"specialTraitsDescription": "",
			"actionsDescription": "",
			"reactionsDescription": "",
			"legendaryActionsDescription": "",
			"mythicActionsDescription": null,
			"bonusActionsDescription": null,
			"characteristicsDescription": "",
			"lairDescription": "",
			"languageDescription": "",
			"languageNote": "",
			"hideCr": false,
			"isLegacy": false
		},
		{
			"collectionUserId": 0,
			"isReleased": false,
			"url": "https://www.dndbeyond.com/monsters/2821142-aartuk-starhorror",
			"conditionImmunitiesHtml": "",
			"sensesHtml": "",
			"skillsHtml": "",
			"stats": [],
			"senses": [],
			"savingThrows": [],
			"skills": [],
			"languages": [],
			"hitPointDice": {
				"diceCount": 0,
				"diceValue": 0,
				"diceMultiplier": 0,
				"fixedValue": 0,
				"diceString": "d0"
			},
			"swarm": { "name": "", "sizeId": 0, "typeId": 0 },
			"movements": [],
			"homebrewStatus": 0,
			"id": 2821142,
			"entityTypeId": 0,
			"name": "Aartuk Starhorror",
			"alignmentId": 0,
			"sizeId": 4,
			"typeId": 15,
			"armorClass": 0,
			"armorClassDescription": "",
			"averageHitPoints": 0,
			"passivePerception": 0,
			"isHomebrew": false,
			"challengeRatingId": 6,
			"sourceId": 90,
			"sourcePageNumber": 9,
			"isLegendary": false,
			"isMythic": false,
			"hasLair": false,
			"avatarUrl": "https://www.dndbeyond.com/avatars/28079/772/637961800645871044.jpeg",
			"largeAvatarUrl": "",
			"basicAvatarUrl": "",
			"version": "",
			"subTypes": [],
			"environments": [],
			"tags": [],
			"sources": [{ "sourceId": 90, "pageNumber": 9, "sourceType": 1 }],
			"damageAdjustments": [],
			"conditionImmunities": [],
			"specialTraitsDescription": "",
			"actionsDescription": "",
			"reactionsDescription": "",
			"legendaryActionsDescription": "",
			"mythicActionsDescription": null,
			"bonusActionsDescription": null,
			"characteristicsDescription": "",
			"lairDescription": "",
			"languageDescription": "",
			"languageNote": "",
			"hideCr": false,
			"isLegacy": false
		},
		{
			"collectionUserId": 0,
			"isReleased": false,
			"url": "https://www.dndbeyond.com/monsters/2821143-aartuk-weedling",
			"conditionImmunitiesHtml": "",
			"sensesHtml": "",
			"skillsHtml": "",
			"stats": [],
			"senses": [],
			"savingThrows": [],
			"skills": [],
			"languages": [],
			"hitPointDice": {
				"diceCount": 0,
				"diceValue": 0,
				"diceMultiplier": 0,
				"fixedValue": 0,
				"diceString": "d0"
			},
			"swarm": { "name": "", "sizeId": 0, "typeId": 0 },
			"movements": [],
			"homebrewStatus": 0,
			"id": 2821143,
			"entityTypeId": 0,
			"name": "Aartuk Weedling",
			"alignmentId": 0,
			"sizeId": 4,
			"typeId": 15,
			"armorClass": 0,
			"armorClassDescription": "",
			"averageHitPoints": 0,
			"passivePerception": 0,
			"isHomebrew": false,
			"challengeRatingId": 6,
			"sourceId": 90,
			"sourcePageNumber": 9,
			"isLegendary": false,
			"isMythic": false,
			"hasLair": false,
			"avatarUrl": "https://www.dndbeyond.com/avatars/28079/775/637961800651330916.jpeg",
			"largeAvatarUrl": "",
			"basicAvatarUrl": "",
			"version": "",
			"subTypes": [],
			"environments": [],
			"tags": [],
			"sources": [{ "sourceId": 90, "pageNumber": 9, "sourceType": 1 }],
			"damageAdjustments": [],
			"conditionImmunities": [],
			"specialTraitsDescription": "",
			"actionsDescription": "",
			"reactionsDescription": "",
			"legendaryActionsDescription": "",
			"mythicActionsDescription": null,
			"bonusActionsDescription": null,
			"characteristicsDescription": "",
			"lairDescription": "",
			"languageDescription": "",
			"languageNote": "",
			"hideCr": false,
			"isLegacy": false
		},
		{
			"collectionUserId": 0,
			"isReleased": false,
			"url": "https://www.dndbeyond.com/monsters/909467-abhorrent-overlord",
			"conditionImmunitiesHtml": "",
			"sensesHtml": "",
			"skillsHtml": "",
			"stats": [],
			"senses": [],
			"savingThrows": [],
			"skills": [],
			"languages": [],
			"hitPointDice": {
				"diceCount": 0,
				"diceValue": 0,
				"diceMultiplier": 0,
				"fixedValue": 0,
				"diceString": "d0"
			},
			"swarm": { "name": "", "sizeId": 0, "typeId": 0 },
			"movements": [],
			"homebrewStatus": 0,
			"id": 909467,
			"entityTypeId": 0,
			"name": "Abhorrent Overlord",
			"alignmentId": 0,
			"sizeId": 5,
			"typeId": 9,
			"armorClass": 0,
			"armorClassDescription": "",
			"averageHitPoints": 0,
			"passivePerception": 0,
			"isHomebrew": false,
			"challengeRatingId": 13,
			"sourceId": 61,
			"sourcePageNumber": 219,
			"isLegendary": false,
			"isMythic": false,
			"hasLair": false,
			"avatarUrl": "https://www.dndbeyond.com/avatars/10836/993/637266357249217458.jpeg",
			"largeAvatarUrl": "",
			"basicAvatarUrl": "",
			"version": "",
			"subTypes": [],
			"environments": [],
			"tags": [],
			"sources": [{ "sourceId": 61, "pageNumber": 219, "sourceType": 1 }],
			"damageAdjustments": [],
			"conditionImmunities": [],
			"specialTraitsDescription": "",
			"actionsDescription": "",
			"reactionsDescription": "",
			"legendaryActionsDescription": "",
			"mythicActionsDescription": null,
			"bonusActionsDescription": null,
			"characteristicsDescription": "",
			"lairDescription": "",
			"languageDescription": "",
			"languageNote": "",
			"hideCr": false,
			"isLegacy": false
		},
		{
			"collectionUserId": 0,
			"isReleased": false,
			"url": "https://www.dndbeyond.com/monsters/17324-abjurer",
			"conditionImmunitiesHtml": "",
			"sensesHtml": "",
			"skillsHtml": "",
			"stats": [],
			"senses": [],
			"savingThrows": [],
			"skills": [],
			"languages": [],
			"hitPointDice": {
				"diceCount": 0,
				"diceValue": 0,
				"diceMultiplier": 0,
				"fixedValue": 0,
				"diceString": "d0"
			},
			"swarm": { "name": "", "sizeId": 0, "typeId": 0 },
			"movements": [],
			"homebrewStatus": 0,
			"id": 17324,
			"entityTypeId": 0,
			"name": "Abjurer",
			"alignmentId": 0,
			"sizeId": 4,
			"typeId": 11,
			"armorClass": 0,
			"armorClassDescription": "",
			"averageHitPoints": 0,
			"passivePerception": 0,
			"isHomebrew": false,
			"challengeRatingId": 13,
			"sourceId": 15,
			"sourcePageNumber": 209,
			"isLegendary": false,
			"isMythic": false,
			"hasLair": false,
			"avatarUrl": "https://www.dndbeyond.com/avatars/4675/675/636747837794884984.jpeg",
			"largeAvatarUrl": "",
			"basicAvatarUrl": "",
			"version": "",
			"subTypes": [],
			"environments": [],
			"tags": [],
			"sources": [{ "sourceId": 15, "pageNumber": 209, "sourceType": 1 }],
			"damageAdjustments": [],
			"conditionImmunities": [],
			"specialTraitsDescription": "",
			"actionsDescription": "",
			"reactionsDescription": "",
			"legendaryActionsDescription": "",
			"mythicActionsDescription": null,
			"bonusActionsDescription": null,
			"characteristicsDescription": "",
			"lairDescription": "",
			"languageDescription": "",
			"languageNote": "",
			"hideCr": false,
			"isLegacy": true
		},
		{
			"collectionUserId": 0,
			"isReleased": false,
			"url": "https://www.dndbeyond.com/monsters/2560712-abjurer-wizard",
			"conditionImmunitiesHtml": "",
			"sensesHtml": "",
			"skillsHtml": "",
			"stats": [],
			"senses": [],
			"savingThrows": [],
			"skills": [],
			"languages": [],
			"hitPointDice": {
				"diceCount": 0,
				"diceValue": 0,
				"diceMultiplier": 0,
				"fixedValue": 0,
				"diceString": "d0"
			},
			"swarm": { "name": "", "sizeId": 0, "typeId": 0 },
			"movements": [],
			"homebrewStatus": 0,
			"id": 2560712,
			"entityTypeId": 0,
			"name": "Abjurer Wizard",
			"alignmentId": 0,
			"sizeId": 4,
			"typeId": 11,
			"armorClass": 0,
			"armorClassDescription": "",
			"averageHitPoints": 0,
			"passivePerception": 0,
			"isHomebrew": false,
			"challengeRatingId": 13,
			"sourceId": 85,
			"sourcePageNumber": 260,
			"isLegendary": false,
			"isMythic": false,
			"hasLair": false,
			"avatarUrl": "https://www.dndbeyond.com/avatars/25746/101/637880557073318841.jpeg",
			"largeAvatarUrl": "",
			"basicAvatarUrl": "",
			"version": "",
			"subTypes": [],
			"environments": [],
			"tags": [],
			"sources": [{ "sourceId": 85, "pageNumber": 260, "sourceType": 1 }],
			"damageAdjustments": [],
			"conditionImmunities": [],
			"specialTraitsDescription": "",
			"actionsDescription": "",
			"reactionsDescription": "",
			"legendaryActionsDescription": "",
			"mythicActionsDescription": null,
			"bonusActionsDescription": null,
			"characteristicsDescription": "",
			"lairDescription": "",
			"languageDescription": "",
			"languageNote": "",
			"hideCr": false,
			"isLegacy": false
		}
	]
}
